…
As can be seen, activate() takes a single argument specifying the part of the data that should be targeted for subsequent operations as an unquoted symbol. tidygraph continues the naming conventions from ggraph using nodes and edges to denote the entities and their connections respectively, but vertices and links are allowed synonyms inside activate().

The current active data can always be extracted as a tibble using as_tibble()

as_tibble(iris_tree)
#> # A tibble: 299 x 4
#>       height  leaf  label members
#>        <dbl> <lgl> <fctr>   <int>
#>  1 0.0000000  TRUE    108       1
#>  2 0.0000000  TRUE    131       1
#>  3 0.2645751 FALSE              2
#>  4 0.0000000  TRUE    103       1
#>  5 0.0000000  TRUE    126       1
#>  6 0.0000000  TRUE    130       1
#>  7 0.3464102 FALSE              2
#>  8 0.5196152 FALSE              3
#>  9 0.5567764 FALSE              5
#> 10 0.0000000  TRUE    119       1
#> # ... with 289 more rows
…
