…
The new API (the old still exists) is centered around a long-format grid
representation that you create with long_grid(). It basically creates an
adorned data frame with coordinates for each row, but provides additional
functionality for converting back to matrix/arrays and raster object:

grid <- long_grid(x = seq(0, 1, length.out = 1000),
                  y = seq(0, 1, length.out = 1000))

grid

## # A tibble: 1,000,000 x 2
##        x       y
##    <dbl>   <dbl>
##  1     0 0      
##  2     0 0.00100
##  3     0 0.00200
##  4     0 0.00300
##  5     0 0.00400
##  6     0 0.00501
##  7     0 0.00601
##  8     0 0.00701
##  9     0 0.00801
## 10     0 0.00901
## # … with 999,990 more rows
…
There are many different types of noise that can be generated with ambient.
Perlin noise is perhaps the most well-known (it did land the creator an Oscar
after all), but many other exists with different characteristics. All of these
can be sampled with the new family of gen_*() functions (generator functions).
These all take coordinates along with different other arguments such as e.g.
frequency and seed. As an example lets calculate some worley noise:

grid <- grid %>% 
  mutate(
    noise = gen_worley(x, y, frequency = 5, value = 'distance')
  )
grid

## # A tibble: 1,000,000 x 3
##        x       y noise
##    <dbl>   <dbl> <dbl>
##  1     0 0       0.203
##  2     0 0.00100 0.207
##  3     0 0.00200 0.211
##  4     0 0.00300 0.215
##  5     0 0.00400 0.219
##  6     0 0.00501 0.223
##  7     0 0.00601 0.228
##  8     0 0.00701 0.232
##  9     0 0.00801 0.236
## 10     0 0.00901 0.241
## # … with 999,990 more rows
…
